absl-py==0.9.0
astor==0.8.1
cachetools==4.0.0
certifi==2019.11.28
chardet==3.0.4
gast==0.2.2
google-auth==1.11.2
google-auth-oauthlib==0.4.1
google-pasta==0.1.8
grpcio==1.27.2
h5py==2.10.0
idna==2.8
Keras==2.3.1
Keras-Applications==1.0.8
Keras-Preprocessing==1.1.0
Markdown==3.2.1
nltk==3.4.5
numexpr==2.7.1
numpy==1.16.2
oauthlib==3.1.0
opt-einsum==3.1.0
protobuf==3.11.3
pyasn1==0.4.8
pyasn1-modules==0.2.8
PyYAML==5.3
requests==2.22.0
requests-oauthlib==1.3.0
rsa==4.0
scipy==1.4.1
six==1.14.0
tables==3.6.1
tensorboard==2.0.2
tensorflow-estimator==2.0.1
tensorflow-gpu==2.0.1
termcolor==1.1.0
urllib3==1.25.8
Werkzeug==1.0.0
wrapt==1.11.2
